sentence_tranformers • huggingfaceR
…
proc.time() - start
#>    user  system elapsed 
#>    7.47    1.64    1.16

The process took about 2 seconds start to finish, not bad! We can
tidy up our results similarly to before:

sentences_embeddings |>
  t() |>
  as_tibble()
#> # A tibble: 384 × 720
#>         V1      V2      V3      V4      V5      V6      V7     V8     V9     V10
#>      <dbl>   <dbl>   <dbl>   <dbl>   <dbl>   <dbl>   <dbl>  <dbl>  <dbl>   <dbl>
#>  1 -0.388  -0.581  -0.125  -0.290   0.609  -0.383   0.143   0.264  0.386 -0.452 
#>  2 -0.201   0.387   0.132  -0.0199 -0.191  -0.511   0.324   0.196 -0.202  0.0188
#>  3  0.425  -0.111  -0.165  -0.375  -0.144  -0.439  -0.0979 -0.104  0.267 -0.206 
#>  4 -0.104  -0.363  -0.268  -0.558  -0.0337  0.592  -0.0861  0.659  0.348  0.0112
#>  5 -0.506   0.196  -0.153  -0.100  -0.0280  0.297   0.938  -0.415 -0.141 -0.504 
#>  6 -0.243   0.236  -0.199   0.0516  0.216   0.378  -0.216  -0.955 -0.534 -0.528 
#>  7 -0.131  -0.399  -0.0515  0.0148  0.337   0.683   0.0664  0.283 -0.378 -0.153 
#>  8  0.0877 -0.0508 -0.363  -0.103  -0.415   0.113   0.0334 -0.205 -1.07   0.210 
#>  9 -0.0164 -0.0204 -0.392   0.277  -0.0233  0.0201 -0.0836 -0.271  0.121  0.193 
#> 10  0.194   0.224   0.127  -0.591  -0.356  -0.567  -0.248   0.117 -0.299 -0.0612
#> # … with 374 more rows, and 710 more variables: V11 <dbl>, V12 <dbl>,
#> #   V13 <dbl>, V14 <dbl>, V15 <dbl>, V16 <dbl>, V17 <dbl>, V18 <dbl>,
#> #   V19 <dbl>, V20 <dbl>, V21 <dbl>, V22 <dbl>, V23 <dbl>, V24 <dbl>,
#> #   V25 <dbl>, V26 <dbl>, V27 <dbl>, V28 <dbl>, V29 <dbl>, V30 <dbl>,
#> #   V31 <dbl>, V32 <dbl>, V33 <dbl>, V34 <dbl>, V35 <dbl>, V36 <dbl>,
#> #   V37 <dbl>, V38 <dbl>, V39 <dbl>, V40 <dbl>, V41 <dbl>, V42 <dbl>,
#> #   V43 <dbl>, V44 <dbl>, V45 <dbl>, V46 <dbl>, V47 <dbl>, V48 <dbl>, …
…
sentences_embeddings_gpu <- minilm_gpu$encode(stringr::sentences, device = device, show_progress_bar = TRUE, batch_size = 64L)

You’ll notice that it actually takes longer with the GPU - that’s
because of the set up costs involved. With a larger dataset or model you
should expect to see at least a 3x speed up when using an M1 chip, and
more with an NVIDIA/cuda gpu (depending on hardware of course).

Let’s say you wanted a different model to “paraphrase-MiniLM-L6-v2”.
You could use huggingfaceR::models_with_downloads to select
a model based on downloads:

models_with_downloads |>
  filter(task == "sentence-similarity")
#> # A tibble: 556 × 5
#>    model                                             downl…¹ task  sha   private
#>    <chr>                                               <int> <chr> <chr> <lgl>  
#>  1 sentence-transformers/stsb-distilbert-base        2128296 sent… 815b… FALSE  
#>  2 sentence-transformers/all-MiniLM-L6-v2            1952830 sent… 3746… FALSE  
#>  3 sentence-transformers/paraphrase-MiniLM-L6-v2     1811338 sent… 68b9… FALSE  
#>  4 sentence-transformers/bert-base-nli-mean-tokens   1346920 sent… 18fc… FALSE  
#>  5 sentence-transformers/paraphrase-multilingual-Mi…  707910 sent… b8ef… FALSE  
#>  6 sentence-transformers/all-mpnet-base-v2            661825 sent… 86eb… FALSE  
#>  7 sentence-transformers/distiluse-base-multilingua…  526976 sent… 896f… FALSE  
#>  8 sentence-transformers/all-MiniLM-L12-v2            388231 sent… 2e5b… FALSE  
#>  9 sentence-transformers/paraphrase-mpnet-base-v2     324132 sent… 18df… FALSE  
#> 10 sentence-transformers/paraphrase-xlm-r-multiling…  244071 sent… 50f7… FALSE  
#> # … with 546 more rows, and abbreviated variable name ¹​downloads
…
c(st_distilbert$get_sentence_embedding_dimension(), st_distilbert$max_seq_length)
#> [1] 768 128

There’s a lot you can do/look at - for example you can get your
model’s tokenizer’s full vocabulary:

model_vocab <- st_distilbert$tokenizer$vocab

model_vocab_df <- tibble(
  token = names(model_vocab),
  id = unlist(model_vocab, recursive = FALSE)
)

model_vocab_df
#> # A tibble: 30,522 × 2
#>    token         id
#>    <chr>      <int>
#>  1 additive   29167
#>  2 ##forms    22694
#>  3 ##sin      11493
#>  4 marsh       9409
#>  5 properties  5144
#>  6 confines   25722
#>  7 slept       7771
#>  8 tally      19552
#>  9 linguist   22978
#> 10 ♣           1624
#> # … with 30,512 more rows
…
