tokenizers • huggingfaceR
…
tokenizer_slow$all_special_tokens
#> [1] "[UNK]"  "[SEP]"  "[PAD]"  "[CLS]"  "[MASK]"

We can check our tokenizer’s max accepted sequence length:

tokenizer_slow$model_max_length
#> [1] 512

We can access our tokenizer’s vocabulary:

(vocab <- tibble(
  token = names(tokenizer$vocab),
  input_id = unlist(tokenizer$vocab, recursive = FALSE)
))
#> # A tibble: 30,522 × 2
#>    token       input_id
#>    <chr>          <int>
#>  1 ##lat          20051
#>  2 initially       3322
#>  3 [unused541]      546
#>  4 owns            8617
#>  5 ##sen           5054
#>  6 pointing        7302
#>  7 pak            22190
#>  8 forte          24898
#>  9 ##ation         3370
#> 10 ##band         12733
#> # … with 30,512 more rows
…
