Search Models — hf_search_models • huggingfaceR
…
limit
The limit on the number of models fetched. Leaving this option to NULL fetches all models.

use_auth_token
The token to use to access private repositories. Unnecessary if HUGGING_FACE_HUB_TOKEN environment variable is set. If True, will use the token generated when running transformers-cli login (stored in ~/.huggingface).

    See also

    https://huggingface.co/docs/hub/searching-the-hub

    Examples

hf_search_models(library = "pytorch", dataset = "mnli")
#> # A tibble: 27 × 12
#>    author         config downloads id    lastModified library_name likes modelId
#>    <chr>          <lgl>      <int> <chr> <chr>        <chr>        <int> <chr>  
#>  1 DeepPavlov     NA            52 Deep… 2021-11-15T… transformers     0 DeepPa…
#>  2 NbAiLab        NA           332 NbAi… 2021-11-17T… transformers     1 NbAiLa…
#>  3 digitalepidem… NA            56 digi… 2021-09-22T… transformers     0 digita…
#>  4 lighteternal   NA           171 ligh… 2021-10-27T… transformers     3 lighte…
#>  5 salesken       NA            45 sale… 2021-07-21T… transformers     2 salesk…
#>  6 valhalla       NA        644051 valh… 2021-06-14T… transformers    20 valhal…
#>  7 valhalla       NA         39712 valh… 2021-06-14T… transformers     7 valhal…
#>  8 valhalla       NA          7160 valh… 2021-06-14T… transformers     4 valhal…
#>  9 valhalla       NA          2771 valh… 2021-06-14T… transformers     2 valhal…
#> 10 vicgalle       NA          1522 vicg… 2021-03-04T… transformers    10 vicgal…
#> # … with 17 more rows, and 4 more variables: pipeline_tag <chr>, private <lgl>,
#> #   sha <chr>, tags <list>
…
